C51 COMPILER V9.60.0.0   INTERRUPTS                                                        03/09/2024 13:43:50 PAGE 1   


C51 COMPILER V9.60.0.0, COMPILATION OF MODULE INTERRUPTS
OBJECT MODULE PLACED IN .\src\Interrupts.OBJ
COMPILER INVOKED BY: C:\SiliconLabs\SimplicityStudio\v5\developer\toolchains\keil_8051\9.60\BIN\C51.exe C:\Users\vgnsi\S
                    -implicityStudio\Projects\touch_gpio\src\Interrupts.c OMF2 SMALL DEBUG OBJECTEXTEND ROM(LARGE) WARNINGLEVEL(2) FLOATFUZZY
                    -(3) OPTIMIZE(8,SPEED) DEFINE(DEBUG=1) INTVECTOR(0X0000) INTPROMOTE INCDIR(C:\Users\vgnsi\SimplicityStudio\Projects\touch
                    -_gpio\inc;C:\Users\vgnsi\SimplicityStudio\Projects\touch_gpio\inc\config;C:/SiliconLabs/SimplicityStudio/v5/developer/sd
                    -ks/8051/v4.3.1//Device/EFM8SB1/peripheral_driver/inc;C:/SiliconLabs/SimplicityStudio/v5/developer/sdks/8051/v4.3.1//Devi
                    -ce/shared/si8051Base;C:/SiliconLabs/SimplicityStudio/v5/developer/sdks/8051/v4.3.1//Device/EFM8SB1/inc;C:/SiliconLabs/Si
                    -mplicityStudio/v5/developer/sdks/8051/v4.3.1//Device/EFM8SB1/efm8_capsense/serial_interface;C:/SiliconLabs/SimplicityStu
                    -dio/v5/developer/sdks/8051/v4.3.1//Lib/efm8_capsense;C:/SiliconLabs/SimplicityStudio/v5/developer/sdks/8051/v4.3.1//Devi
                    -ce/EFM8SB1/efm8_capsense/device_layer) PRINT(.\src\Interrupts.lst) COND PAGEWIDTH(120) PAGELENGTH(65) OBJECT(.\src\Inter
                    -rupts.OBJ)

line level    source

   1          //=========================================================
   2          // src/Interrupts.c: generated by Hardware Configurator
   3          //
   4          // This file will be regenerated when saving a document.
   5          // leave the sections inside the "$[...]" comment tags alone
   6          // or they will be overwritten!
   7          //=========================================================
   8          
   9          
  10          // USER INCLUDES
  11          //#include "bsp.h"
  12          #include "smb_0.h"
  13          #include "SMBus_Lib_Buffered_Slave_Multibyte.h"
  14          
  15          //-----------------------------------------------------------------------------
  16          // TIMER3_ISR
  17          //-----------------------------------------------------------------------------
  18          //
  19          // TIMER3 ISR Content goes here. Remember to clear flag bits:
  20          // TMR3CN0::TF3H (Timer # High Byte Overflow Flag)
  21          // TMR3CN0::TF3L (Timer # Low Byte Overflow Flag)
  22          //
  23          //-----------------------------------------------------------------------------
  24          SI_INTERRUPT(TIMER3_ISR, TIMER3_IRQn)
  25          {
  26   1        // Clear Timer 3 high overflow flag
  27   1        TMR3CN0 &= ~TMR3CN0_TF3H__SET;
  28   1      
  29   1        numErrors++;
  30   1      
  31   1        // Abort the transfer and set rx/tx bytes remaining to 0
  32   1        SMB0_abortTransfer();
  33   1      
  34   1        SMB0CF &= ~SMB0CF_ENSMB__ENABLED;     // Disable SMBus
  35   1        SMB0CF |= SMB0CF_ENSMB__ENABLED;      // Re-enable SMBus
  36   1      
  37   1        SMB0CN0_STA = 0;
  38   1      }


MODULE INFORMATION:   STATIC OVERLAYABLE
   CODE SIZE        =     81    ----
   CONSTANT SIZE    =   ----    ----
   XDATA SIZE       =   ----    ----
   PDATA SIZE       =   ----    ----
   DATA SIZE        =   ----    ----
   IDATA SIZE       =   ----    ----
C51 COMPILER V9.60.0.0   INTERRUPTS                                                        03/09/2024 13:43:50 PAGE 2   

   BIT SIZE         =   ----    ----
   EDATA SIZE       =   ----    ----
   HDATA SIZE       =   ----    ----
   XDATA CONST SIZE =   ----    ----
   FAR CONST SIZE   =   ----    ----
END OF MODULE INFORMATION.


C51 COMPILATION COMPLETE.  0 WARNING(S),  0 ERROR(S)
