C51 COMPILER V9.60.0.0   SMBUS_LIB_BUFFERED_SLAVE_MULTIBYTE                                03/12/2024 16:53:48 PAGE 1   


C51 COMPILER V9.60.0.0, COMPILATION OF MODULE SMBUS_LIB_BUFFERED_SLAVE_MULTIBYTE
OBJECT MODULE PLACED IN .\src\SMBus_Lib_Buffered_Slave_Multibyte.OBJ
COMPILER INVOKED BY: C:\SiliconLabs\SimplicityStudio\v5\developer\toolchains\keil_8051\9.60\BIN\C51.exe C:\Users\vgnsi\S
                    -implicityStudio\Projects\touch_gpio\src\SMBus_Lib_Buffered_Slave_Multibyte.c OMF2 SMALL DEBUG OBJECTEXTEND ROM(LARGE) WA
                    -RNINGLEVEL(2) FLOATFUZZY(3) OPTIMIZE(8,SPEED) DEFINE(DEBUG=1) INTVECTOR(0X0000) INTPROMOTE INCDIR(C:\Users\vgnsi\Simplic
                    -ityStudio\Projects\touch_gpio\inc;C:\Users\vgnsi\SimplicityStudio\Projects\touch_gpio\inc\config;C:/SiliconLabs/Simplici
                    -tyStudio/v5/developer/sdks/8051/v4.3.1//Device/EFM8SB1/peripheral_driver/inc;C:/SiliconLabs/SimplicityStudio/v5/develope
                    -r/sdks/8051/v4.3.1//Device/shared/si8051Base;C:/SiliconLabs/SimplicityStudio/v5/developer/sdks/8051/v4.3.1//Device/EFM8S
                    -B1/inc;C:/SiliconLabs/SimplicityStudio/v5/developer/sdks/8051/v4.3.1//Device/EFM8SB1/efm8_capsense/serial_interface;C:/S
                    -iliconLabs/SimplicityStudio/v5/developer/sdks/8051/v4.3.1//Lib/efm8_capsense;C:/SiliconLabs/SimplicityStudio/v5/develope
                    -r/sdks/8051/v4.3.1//Device/EFM8SB1/efm8_capsense/device_layer) PRINT(.\src\SMBus_Lib_Buffered_Slave_Multibyte.lst) COND 
                    -PAGEWIDTH(120) PAGELENGTH(65) OBJECT(.\src\SMBus_Lib_Buffered_Slave_Multibyte.OBJ)

line level    source

   1          //-----------------------------------------------------------------------------
   2          // SMBus_Lib_Buffered_Slave_Multibyte.c
   3          //-----------------------------------------------------------------------------
   4          // Copyright 2014 Silicon Laboratories, Inc.
   5          // http://developer.silabs.com/legal/version/v11/Silicon_Labs_Software_License_Agreement.txt
   6          //
   7          // Program Description:
   8          //
   9          // Example software to demonstrate the SMBus interface in Slave mode using
  10          // the EFM8 SMBus peripheral driver in buffered mode.
  11          // - Interrupt-driven SMBus implementation
  12          // - Only slave states defined
  13          // - Multi-byte SMBus data holders used for both transmit and receive
  14          // - Timer1 used as SMBus clock rate (used only for free timeout detection)
  15          // - Timer3 used by SMBus for SCL low timeout detection
  16          // - SMB0CN0_ARBLOST support included
  17          // - supports multiple-byte writes and multiple-byte reads
  18          // - Pinout:
  19          //    P1.2 -> SDA (SMBus)
  20          //    P1.3 -> SCL (SMBus)
  21          //
  22          //    P1.1 -> LED
  23          //
  24          //    all other port pins unused
  25          //
  26          // How To Test:
  27          //
  28          // 1) Place the switch in "AEM" mode.
  29          // 2) Connect the device to another EFM8 device running SMBus - Master Multibyte code.
  30          // 3) Connect the EFM8SB1 STK board to a PC using a mini USB cable.
  31          // 4) Compile and download code to the EFM8SB1 STK board.
  32          //    In Simplicity Studio IDE, select Run -> Debug from the menu bar,
  33          //    click the Debug button in the quick menu, or press F11.
  34          // 5) Run the code.
  35          //    In Simplicity Studio IDE, select Run -> Resume from the menu bar,
  36          // 6) The slave code will copy the write data to the read
  37          //    data, so a successive write and read will effectively echo the data
  38          //    written.  To verify that the code is working properly, verify on the
  39          //    master that the data received is the same as the data written.
  40          //
  41          // Target:         EFM8SB1
  42          // Tool chain:     Simplicity Studio / Keil C51 9.51
  43          // Command Line:   None
  44          //
  45          // Release 1.0 (BL)
  46          //    - Initial Release
  47          //    - 9 JAN 2015
C51 COMPILER V9.60.0.0   SMBUS_LIB_BUFFERED_SLAVE_MULTIBYTE                                03/12/2024 16:53:48 PAGE 2   

  48          //
  49          //
  50          
  51          //-----------------------------------------------------------------------------
  52          // Includes
  53          //-----------------------------------------------------------------------------
  54          //#include "bsp.h"
  55          //#include "uart_0.h"
  56          #include "smb_0.h"
  57          #include "stdio.h"
  58          #include "InitDevice.h"
  59          //#include "string.h"
  60          #include "SMBus_Lib_Buffered_Slave_Multibyte.h"
  61          #include "cslib_config.h"
  62          #include "cslib.h"
  63          #include "profiler_interface.h"
  64          #include "comm_routines.h"
  65          //#include "stdint.h"
  66          
  67          //#define NO_OF_CAP_CHANNELS 8
  68          //uint8_t cap_channel_touched[NO_OF_CAP_CHANNELS] =
  69          //  { 0 };
  70          
  71          uint8_t cap_channel_2bytes[2];
  72          uint8_t Touch_status = 0;
  73          uint8_t ready_for_new_touch;
  74          SI_SBIT(LED0, SFR_P1, 6);
  75          SI_SBIT(PIN6, SFR_P0, 4);
  76          SI_SBIT(PIN5, SFR_P0, 5);
  77          SI_SBIT(PIN4, SFR_P1, 0);
  78          SI_SBIT(PIN3, SFR_P1, 1);
  79          SI_SBIT(PIN2, SFR_P1, 2);
  80          SI_SBIT(PIN1, SFR_P1, 3);
  81          
  82          //-----------------------------------------------------------------------------
  83          // Global VARIABLES
  84          //-----------------------------------------------------------------------------
  85          #define BUFFER_LENGTH 5
  86          SI_SEGMENT_VARIABLE(buffer[BUFFER_LENGTH], uint8_t, SI_SEG_XDATA);
  87          
  88          // Global holder for SMBus data
  89          // All receive data is written here
  90          SI_SEGMENT_VARIABLE(SMB_DATA_IN[NUM_BYTES_RD], uint8_t,
  91                              EFM8PDL_SMB0_RX_BUFTYPE);
  92          
  93          // Global holder for SMBus data.
  94          // All transmit data is read from here
  95          SI_SEGMENT_VARIABLE(SMB_DATA_OUT[NUM_BYTES_WR], uint8_t,
  96                              EFM8PDL_SMB0_TX_BUFTYPE);
  97          volatile bool transferInProgress = false;
  98          // Counter for the number of errors.
  99          uint16_t numErrors;
 100          
 101          SI_LOCATED_VARIABLE_NO_INIT(reserved, uint8_t, SI_SEG_XDATA, 0x0000);
 102          //char Tx_ready = 1;
 103          char smb_rec = 0;
 104          //SI_SBIT(SDA, SFR_P1, 2);
 105          //SI_SBIT(SCL, SFR_P1, 3);
 106          
 107          //-----------------------------------------------------------------------------
 108          // Pin Definitions
 109          //-----------------------------------------------------------------------------
 110          
C51 COMPILER V9.60.0.0   SMBUS_LIB_BUFFERED_SLAVE_MULTIBYTE                                03/12/2024 16:53:48 PAGE 3   

 111          //-----------------------------------------------------------------------------
 112          // SiLabs_Startup() Routine
 113          // ----------------------------------------------------------------------------
 114          // This function is called immediately after reset, before the initialization
 115          // code is run in SILABS_STARTUP.A51 (which runs before main() ). This is a
 116          // useful place to disable the watchdog timer, which is enable by default
 117          // and may trigger before main() in some instances.
 118          //-----------------------------------------------------------------------------
 119          void
 120          SiLabs_Startup (void)
 121          {
 122   1        // Disable the watchdog here
 123   1      }
 124          //void
 125          //send_string_serial (char *s)
 126          //{
 127          //  char *stmp = s;
 128          //  char c;
 129          //  while ((c = *stmp++) != 0)
 130          //    {
 131          //      while (Tx_ready == 0)
 132          //        ;
 133          //      SBUF0 = c;
 134          //      Tx_ready = 0;
 135          //
 136          //    }
 137          //}
 138          //
 139          //void
 140          //send_data_serial (uint8_t *dataptr, uint8_t length)
 141          //{
 142          //  // uint8_t *stmp = dataptr;
 143          //  uint8_t i = 0;
 144          //  while (i < length)
 145          //    {
 146          //      while (Tx_ready == 0)
 147          //        ;
 148          //
 149          //      SBUF0 = *(dataptr + i);
 150          //      i++;
 151          //      Tx_ready = 0;
 152          //
 153          //    }
 154          //}
 155          void
 156          send_touch_event (uint8_t channel)
 157          {
 158   1        SMB_DATA_OUT[0] = channel;
 159   1      
 160   1        transferInProgress = true;
 161   1      
 162   1        // Start write/read transfer
 163   1        // Send out data
 164   1        // Receive in data (loopback data from slave)
 165   1        SMB0_transfer (SLAVE_ADDR, SMB_DATA_OUT, SMB_DATA_IN, NUM_BYTES_WR,
 166   1        NUM_BYTES_RD);
 167   1      
 168   1        // Wait until transfer complete callback is called
 169   1        while (transferInProgress)
 170   1          ;
 171   1      
 172   1      }
 173          //-----------------------------------------------------------------------------
C51 COMPILER V9.60.0.0   SMBUS_LIB_BUFFERED_SLAVE_MULTIBYTE                                03/12/2024 16:53:48 PAGE 4   

 174          // main() Routine
 175          // ----------------------------------------------------------------------------
 176          int
 177          main (void)
 178          {
 179   1      
 180   1        volatile uint8_t rst;
 181   1      //  uint8_t i, j;
 182   1      //  char logbuf[16];
 183   1        char num_1[1] = "1";
 184   1        //Enter default mode
 185   1        rst = RSTSRC;
 186   1      
 187   1        enter_DefaultMode_from_RESET ();
 188   1      
 189   1        //LED0 = 0;
 190   1        PIN1 = 0;
 191   1        PIN2 = 0;
 192   1        PIN3 = 0;
 193   1        PIN4 = 0;
 194   1        PIN5 = 0;
 195   1        PIN6 = 0;
 196   1        //IE_EA = 1;
 197   1      //  while (!SDA)
 198   1      //    {
 199   1      //      // Provide clock pulses to allow the slave to advance out
 200   1      //      // of its current state. This will allow it to release SDA.
 201   1      //      XBR2 = XBR2_XBARE__ENABLED;       // Enable Crossbar
 202   1      //      SCL = 0;                          // Drive the clock low
 203   1      //      for (i = 0; i < 255; i++)
 204   1      //        ;        // Hold the clock low
 205   1      //      SCL = 1;                          // Release the clock
 206   1      //      while (!SCL)
 207   1      //        ;                     // Wait for open-drain
 208   1      //                              // clock output to rise
 209   1      //      for (i = 0; i < 10; i++)
 210   1      //        ;         // Hold the clock high
 211   1      //      XBR2 = XBR2_XBARE__DISABLED;      // Disable Crossbar
 212   1      //    }
 213   1        enter_Mode2_from_DefaultMode ();
 214   1      
 215   1        //sprintf (logbuf, "%d ", rst);
 216   1        //send_string_serial (logbuf);
 217   1        // send_string_serial ("Reseted\r\n");
 218   1      
 219   1      //  CSLIB_commInit ();
 220   1      
 221   1      // Configures all peripherals controlled by capsense, including
 222   1      // the sensing block and port pins
 223   1        CSLIB_initHardware ();
 224   1      
 225   1        // Initializes the capsense variables and performs some scans to
 226   1        // initialize the baselines
 227   1        CSLIB_initLibrary ();
 228   1      //  P0 |= 0x01;
 229   1      //  P2MDOUT |= 0x80;
 230   1      //  P2 &= ~0x80;
 231   1      
 232   1        //ready_for_new_touch = 0;
 233   1        // Initializes the UART interface
 234   1      
 235   1        //BSP_DISP_EN = 0;
 236   1      //  BSP_LED0 = BSP_LED_OFF;
C51 COMPILER V9.60.0.0   SMBUS_LIB_BUFFERED_SLAVE_MULTIBYTE                                03/12/2024 16:53:48 PAGE 5   

 237   1      
 238   1      // Initialize the outgoing data array in case a read is done before a
 239   1      // write
 240   1      //  for (i = 0; i < NUM_BYTES_RD; i++)
 241   1      //    {
 242   1      //      SMB_DATA_OUT[i] = 0xFD;
 243   1      //    }
 244   1      
 245   1      //  SMB0_reset ();
 246   1      
 247   1        // Use Timer 1 for SCL clock rate
 248   1        // Enable SCL low timeout using Timer 3
 249   1      //  SMB0_init (SMB0_TIMER0, true);
 250   1      
 251   1        // Set slave address for hardware ack
 252   1        // Assign RX buffer to store received data
 253   1        // (allocate an additional byte so we don't get an extra
 254   1        // SMB0_commandReceivedCb() call due to the buffer
 255   1        // being full)
 256   1        // SMB0_initSlave (SLAVE_ADDR, SMB_DATA_IN, NUM_BYTES_RD + 1);
 257   1      //  send_string_serial ("Inited\r\n");
 258   1        while (1)
 259   1          {
 260   2            if (smb_rec)
 261   2              {
 262   3                //  send_string_serial ("I2C data: ");
 263   3                //send_data_serial (smb_data, NUM_BYTES_WR);
 264   3                //send_string_serial ("\r\n");
 265   3                smb_rec = 0;
 266   3              }
 267   2            //send_string_serial ("Running\r\n");
 268   2            CSLIB_update ();
 269   2            //send_string_serial ("update\r\n");
 270   2            //CSLIB_commUpdate ();
 271   2            //send_string_serial ("commupdate\r\n");
 272   2            // -----------------------------------------------------------------------------
 273   2            // If low power features are enabled, this will either put the device into a low
 274   2            // power state until it is time to take another scan, or put the device into a
 275   2            // low-power sleep mode if no touches are active
 276   2            // -----------------------------------------------------------------------------
 277   2      
 278   2      //      CSLIB_lowPowerUpdate ();
 279   2      
 280   2            if (CSLIB_anySensorDebounceActive ())
 281   2              {
 282   3                LED0 = 0;
 283   3                Touch_status = 1;
 284   3              }
 285   2            else
 286   2              {
 287   3                LED0 = 1;
 288   3                Touch_status = 0;
 289   3              }
 290   2      
 291   2            if (Touch_status)
 292   2              {
 293   3                PIN1 = CSLIB_isSensorDebounceActive (0);
 294   3                PIN2 = CSLIB_isSensorDebounceActive (1);
 295   3                PIN3 = CSLIB_isSensorDebounceActive (2);
 296   3                PIN4 = CSLIB_isSensorDebounceActive (3);
 297   3                PIN5 = CSLIB_isSensorDebounceActive (4);
 298   3                PIN6 = CSLIB_isSensorDebounceActive (5);
 299   3              }
C51 COMPILER V9.60.0.0   SMBUS_LIB_BUFFERED_SLAVE_MULTIBYTE                                03/12/2024 16:53:48 PAGE 6   

 300   2      //      else
 301   2      //        ready_for_new_touch = 1;
 302   2      
 303   2          }
 304   1      }
 305          
 306          //-----------------------------------------------------------------------------
 307          // Callbacks
 308          //-----------------------------------------------------------------------------
 309          
 310          // Callback is called when the slave receives data from the master
 311          void
 312          SMB0_commandReceivedCb ()
 313          {
 314   1      //  uint8_t i;
 315   1      //  uint8_t len = SMB0_getCommandLength ();
 316   1      //
 317   1      //  // Don't send more data than will fit in the TX buffer
 318   1      //  if (len > NUM_BYTES_WR)
 319   1      //    {
 320   1      //      len = NUM_BYTES_WR;
 321   1      //    }
 322   1      //
 323   1      //  if (SMB_DATA_IN[0] < NO_OF_CAP_CHANNELS)
 324   1      //    SMB_DATA_OUT[0] = cap_channel_touched[SMB_DATA_IN[0]];
 325   1      //  else
 326   1      //    {
 327   1      //          SMB_DATA_OUT[0] = SMB_DATA_IN[0];
 328   1      //    }
 329   1      //  for (i = 1; i < len; i++)
 330   1      //    SMB_DATA_OUT[i] = SMB_DATA_IN[i];
 331   1      ////  if (SMB_DATA_IN[0] == 0xAA)
 332   1      ////    {
 333   1      ////      LED0 = 0;
 334   1      ////    }
 335   1      ////  if (SMB_DATA_IN[0] == 0xBB)
 336   1      ////    {
 337   1      ////      LED0 = 1;
 338   1      ////    }
 339   1      //  smb_rec = 1;
 340   1      //
 341   1      //  // Send the response to the master
 342   1      //  SMB0_sendResponse (SMB_DATA_OUT, len);
 343   1      //
 344   1      ////  BSP_LED0 = !BSP_LED0;
 345   1      }
 346          
 347          // Callback is called when an SMBus error occurs
 348          void
 349          SMB0_errorCb (SMB0_TransferError_t error)
 350          {
 351   1        switch (error)
 352   1          {
 353   2          case SMB0_ARBLOST_ERROR:
 354   2          case SMB0_NACK_ERROR:
 355   2          case SMB0_UNKNOWN_ERROR:
 356   2          case SMB0_TXUNDER_ERROR:
 357   2            numErrors++;
 358   2            break;
 359   2          } // Abort the transfer
 360   1        SMB0_abortTransfer ();
 361   1      
 362   1        // Transfer is complete (error)
C51 COMPILER V9.60.0.0   SMBUS_LIB_BUFFERED_SLAVE_MULTIBYTE                                03/12/2024 16:53:48 PAGE 7   

 363   1        transferInProgress = false;
 364   1      }
 365          
 366          void
 367          SMB0_transferCompleteCb ()
 368          {
 369   1        transferInProgress = false;
 370   1      }
 371          
 372          void
 373          UART0_receiveCompleteCb ()
 374          {
 375   1      //  uint8_t i;
 376   1      //
 377   1      //  for (i = 0; i < BUFFER_LENGTH; i++)
 378   1      //    {
 379   1      //      command_str[i] = buffer[i];
 380   1      //    }
 381   1      //  command_str[BUFFER_LENGTH] = 0;
 382   1      //  //UART0_writeBuffer (buffer, BUFFER_LENGTH);
 383   1      //  process_cmd (command_str);
 384   1      
 385   1      //  if ((char) *buffer == '\n')
 386   1      //    {
 387   1      //      curr_ptr = 0;
 388   1      //      return;
 389   1      //    }
 390   1      //  main_buffer[curr_ptr++] = *buffer;
 391   1      //  if (curr_ptr == 8)
 392   1      //    {
 393   1      //      process_cmd (main_buffer);
 394   1      //      curr_ptr = 0;
 395   1      //    }
 396   1      }
 397          
 398          //void
 399          //UART0_transmitCompleteCb ()
 400          //{
 401          //  Tx_ready = 1;
 402          //}


MODULE INFORMATION:   STATIC OVERLAYABLE
   CODE SIZE        =    192    ----
   CONSTANT SIZE    =      1    ----
   XDATA SIZE       =      5    ----
   PDATA SIZE       =   ----    ----
   DATA SIZE        =      7       2
   IDATA SIZE       =      6    ----
   BIT SIZE         =      1    ----
   EDATA SIZE       =   ----    ----
   HDATA SIZE       =   ----    ----
   XDATA CONST SIZE =   ----    ----
   FAR CONST SIZE   =   ----    ----
END OF MODULE INFORMATION.


C51 COMPILATION COMPLETE.  0 WARNING(S),  0 ERROR(S)
